{
   "abstract" : "dynamically change the value of a variable",
   "author" : [
      "Paul Evans <leonerd@leonerd.org.uk>"
   ],
   "dynamic_config" : 1,
   "generated_by" : "Module::Build version 0.4231",
   "license" : [
      "perl_5"
   ],
   "meta-spec" : {
      "url" : "http://search.cpan.org/perldoc?CPAN::Meta::Spec",
      "version" : 2
   },
   "name" : "Syntax-Keyword-Dynamically",
   "prereqs" : {
      "build" : {
         "requires" : {
            "ExtUtils::CBuilder" : "0"
         }
      },
      "configure" : {
         "requires" : {
            "Future::AsyncAwait::ExtensionBuilder" : "0.60",
            "Module::Build" : "0.4004",
            "XS::Parse::Keyword::Builder" : "0.13"
         }
      },
      "runtime" : {
         "requires" : {
            "XS::Parse::Keyword" : "0.13",
            "perl" : "5.014"
         }
      },
      "test" : {
         "requires" : {
            "Test::More" : "0.88"
         }
      }
   },
   "provides" : {
      "Syntax::Keyword::Dynamically" : {
         "file" : "lib/Syntax/Keyword/Dynamically.pm",
         "version" : "0.11"
      }
   },
   "release_status" : "stable",
   "resources" : {
      "license" : [
         "http://dev.perl.org/licenses/"
      ],
      "x_IRC" : "irc://irc.perl.org/#io-async"
   },
   "version" : "0.11",
   "x_serialization_backend" : "JSON::PP version 4.07"
}
